%YAML 1.1
%TAG !u! tag:unity3d.com,2011:
--- !u!78 &1
TagManager:
  serializedVersion: 2
  tags:
  - TileHolder
  - Robot
  - tile
  - can
  - exit
  - Sheild
  - target
  - Walls
  - pickup
  layers:
  - Default
  - TransparentFX
  - Ignore Raycast
  - 
  - Water
  - UI
  - 
  - 
  - minimap
  - walls
  - guard
  - ground
  - tile
  - laser
  - Player
  - can
  - exit
  - sheild
  - invisible
  - 
  - 
  - 
  - 
  - 
  - 
  - 
  - 
  - 
  - 
  - 
  - 
  - 
  m_SortingLayers:
  - name: Default
    uniqueID: 0
    locked: 0
